tr01:  1411
tr02:  1404
tr03:  1388
tr04:  1332
tr05:  1407
tr06:  1400
tr07:  1357
tr08:  1350
tr09:  1449
tr010:  1470
tr011:  1750
tr012:  1549
tr013:  1518
tr014:  1567
tr015:  1622
tr016:  1538
tr017:  1707
tr018:  1699
tr019:  1617
tr020:  1510
tr021:  1928
tr022:  1849
tr023:  1828
tr024:  1951
tr025:  1873
tr026:  1874
tr027:  1965
tr028:  1959
tr029:  1877
tr030:  1890
tr031:  2149
tr032:  2235
tr033:  2244
tr034:  2236
tr035:  2205
tr036:  2183
tr037:  2235
tr038:  2082
tr039:  2182
tr040:  2098
tr041:  2539
tr042:  2332
tr043:  2305
tr044:  2662
tr045:  2398
tr046:  2432
tr047:  2310
tr048:  2413
tr049:  2451
tr050:  2406
tr051:  3167
tr052:  3258
tr053:  3169
tr054:  3210
tr055:  3296
tr056:  3266
tr057:  3334
tr058:  3328
tr059:  3176
tr060:  3195
tr061:  3540
tr062:  3467
tr063:  3302
tr064:  3203
tr065:  3063
tr066:  3401
tr067:  3347
tr068:  3310
tr069:  3717
tr070:  3856
tr071:  6329
tr072:  6040
tr073:  6385
tr074:  6010
tr075:  6182
tr076:  6015
tr077:  6108
tr078:  6030
tr079:  5914
tr080:  17265
